%YAML 1.1
%TAG !u! tag:unity3d.com,2011:
--- !u!1045 &1
EditorBuildSettings:
  m_ObjectHideFlags: 0
  serializedVersion: 2
  m_Scenes:
  - enabled: 0
    path: 
    guid: d1c3109bdb54ad54c8a2b2838528e640
  - enabled: 1
    path: Assets/Scenes/startMenu.unity
    guid: 4ba49360bb3af4946af49dfbdea90850
  - enabled: 1
    path: Assets/Scenes/main.unity
    guid: 78a510c781f19db4da14f78ebb30946a
  m_configObjects: {}
